07380151
23221488
03759253
07369735
18123368
18268838
14525917
20775830
23769998
21903034
26306697
23924403
25181777
10158782
26178044
24054739
26354640
20860447
09510605
23047402
26229781
15435725
25240382
17077753
01125990
01200275
23128631
07268602
00302465
09727531
13044524
07124813
24601543
13494449
19786743
24113522
23722797
1470482X
17406749
00049573
26640031
23310553
02943506
24488259
00212237
13359479
21538018
22494847
03663175
25274961
16061918
23024046
24488909
00039128
03241653
11803479
25084445
01790358
21986444
03068374
1729536X
15823458
1004423X
22186255
14719037
21481938
24425389
0379606X
2573668X
09733469
1744666X
00326313
22265724
24157031
07430167
0361090X
10441859
00757640
14733285
2148029X
10477047
14123789
1349581X
17386454
08990603
26214709
17561477
22237690
1998992X
20858612
10241809
24113468
10118497
24734365
14785951
18328105
23102837
22127445
18357601
23984155
18759858
17481317
0251043X
24464732
20500386
26400324
03624803
00207292
0387754X
12311952
21454175
17383684
23131829
22876316
13656937
0091651X
23475013
00424900
2525989X
18415164
00965928
10430733
0097966X
02514184
13237799
23290382
23546271
20905181
18729312
00131911
23566671
0372820X
00343102
1068316X
23087943
1234754X
13900099
23392886
14760835
18111475
25492055
23342323
10155775
20789912
00348325
09188959
00221791
21720479
03045013
25264265
20757190
17599334
26883740
14712385
09741712
19815794
00351865
00213411
14105691
2498700X
17696844
10382046
13876759
23192585
17321220
22160973
26636859
14710358
23053712
23792868
16095693
24587494
10619526
1134928X
19448953
2194668X
00384941
25985876
26416530
03799522
23835214
25799118
15182886
00068705
02023628
25755730
19429045
01689673
15474127
22078533
23379227
18770657
25901354
23738227
12266604
00319252
08856672
17426847
20627904
0033569X
00264806
18298680
18910882
14108593
13697021
21690391
14333317
08863067
17381916
0018067X
15164136
02679477
20951701
24073563
16576535
00136220
09388982
19473419
00318213
08542031
22528385
00095893
10725830
10897011
14778394
13185454
00402389
26438429
17320917
02683962
23121947
14797585
21678715
20738803
02102412
13616447
08899746
23280476
23016248
18763898
01204114
20904592
21981620
25902903
01239392
23023449
14733250
0817881X
22874844
24487155
19849745
20900325
13693786
03972844
20503679
10530800
14673584
20052901
16938364
26227398
14331128
08690189
14120313
13636820
13003496
19766793
20445210
18779166
25985213
1088467X
18742335
07224028
24696730
14118114
03527875
25902385
23569115
00040304
2356699X
14714787
1229893X
19253621
00257125
19954646
17435099
2049677X
26304651
23552840
10226583
17383102
01861042
1808589X
25030493
24605956
22559256
13060015
15630285
18164935
18770568
02873478
21473501
23496118
23223758
17321360
18749143
22546219
22882693
10840184
26857820
10706631
19949529
26147890
07081715
26330024
09387994
25272179
10110070
23991275
03233944
19362854
00237639
25798383
14145138
21771499
13027476
07193084
12923036
09697764
11781661
18092667
24686034
25086456
19811640
1523908X
12595977
20789785
18297528
26324512
08047375
2053535X
13624806
10188827
21088845
14118890
20523890
26761041
09766995
26560631
00771554
0255660X
00494925
1077727X
23117257
1243258X
24685674
20413866
24072427
00431737
00402486
03613658
03636119
00463663
2046147X
13504487
14103249
02955024
24428809
26635453
14133555
00752207
00207438
23015349
07264240
2233890X
26401010
13532618
14155141
00283835
10983511
2079620X
13004948
25020935
22526277
03983412
0972639X
1345532X
08537291
23264500
09503153
24604585
09701516
19925786
03750299
20935765
17551463
18972764
14712172
13507265
00834041
20768214
02795442
00707546
0304422X
03270289
15694445
20721692
00057878
00050423
10280987
17511437
23066806
12254517
26665395
00494747
0748321X
17674603
21514208
14126613
15216896
25393766
18958680
25089080
15973778
01036513
21081433
09738916
10523073
20690533
13835726
00234591
18963811
03019322
23557052
23566736
2543537X
03719553
01629700
00333506
17487331
15248879
27069982
18651674
25609068
13558196
16938275
07003862
23979704
13649027
01860526
13894986
15689883
08971889
17446651
2058802X
25651021
23078030
07351631
20723202
20770472
22500030
08965811
12260290
00029416
24604089
16590104
21680272
14730928
0066622X
11321202
09742700
23553669
00380938
03529509
25814796
17268028
09742662
00084115
19414897
00810002
08544743
13405381
14140810
22327525
00361399
09618368
20514158
01607715
05799406
2352507X
20562799
20591098
18680860
23088877
26141264
23024178
21488088
09297049
12532711
03665232
20406223
25240552
1811833X
20297424
22272747
20457960
1030570X
19973985
17385296
24695688
26221810
23535156
12265578
25974890
23208457
26542609
17745314
20859481
09743243
1676546X
02126567
13455834
22523847
01468030
01440365
20787782
20865872
16074181
23071737
24108618
14670100
00963402
16761790
21631344
22335234
25896725
25423975
10821651
24609587
18094031
17535255
23478640
14120534
08977194
23816872
16188667
00049530
22871373
13548697
19761023
00099147
23024747
03527565
08957959
17941237
03870952
00182702
17428009
23302143
25799185
15571459
09381279
00018392
0959289X
13030876
01607960
03545881
26854341
09726691
01415530
17434270
13498509
1848929X
01596306
16871308
25227890
11488158
18208495
14712474
08936609
01635972
23566868
18749186
2415038X
03009440
09747788
23010614
10935703
12232254
08697493
19322275
07397917
02538040
13670271
10541721
1093474X
03284077
10211209
10285911
09201580
20884842
17388813
20894503
23250070
13555111
0307174X
02635143
21968802
22299769
20863128
17590787
21604096
20888112
00269662
21938865
0031918X
15982629
0272684X
03656020
20912374
20139470
21965641
2548334X
03905616
25803689
10071202
11493720
2460674X
17591376
2146832X
17424186
21893926
10290729
1411139X
26147416
00366579
12299448
17549426
00426431
03502120
2706414X
08531625
12034754
24121142
14134152
02132338
00063398
18643825
22315683
23551011
00138754
25720317
10898123
03883051
20749546
03875008
03784878
00750530
13646826
21473153
10709908
26124548
16874757
00224812
22871705
12218138
03980499
20566093
21775672
22111042
08844496
19790953
15344320
22178821
23085827
19784163
25943596
18538037
15417069
23566558
04466454
03123162
1762584X
00164119
26851393
16614747
09156992
26226154
00241008
1470949X
15684857
00333123
00038121
00937231
03004864
17538157
00702749
10039775
03601285
09243089
23036850
18151434
23721928
09462171
24604550
00037214
20408765
26217821
20712898
07439407
01973851
19645007
03401804
15982041
25395386
21487219
24774022
20336411
23053496
01650300
03529045
16876679
17521505
09710973
15569039
18959075
10195297
20885857
00224111
18739164
2461078X
03407594
15695794
1907364X
19887221
10011749
15757048
15567249
1300302X
08691908
20523211
23649208
20524013
22249893
18075436
00223468
22383913
24106208
20760558
00311820
03889459
04823206
17129532
0003682X
15487237
26112590
02787393
02776774
23523026
24130117
0302766X
00043958
23525525
24149810
20904479
07348584
14114917
23951893
20879040
05849063
19733739
15448053
00029432
00218901
02130181
10939644
18413293
12299693
25721801
09599673
05789745
18003621
10224793
25776207
13535226
00057967
1751570X
17543371
26156385
00318116
23264403
09752919
19759479
12263133
02699370
03234096
14138263
15630331
23989173
26419475
10347674
13921649
0857717X
20406738
22106707
20788975
09594388
18731988
19844670
23188960
22370579
23021462
25187953
22842403
12795127
13885545
01050710
13506501
11378174
21455147
24116653
19706804
17476321
2301380X
03728552
26614456
09698078
25793675
01640925
00692379
18160301
16841182
2407439X
18096867
09258531
19761597
17762596
23055154
24772429
27054616
25001531
17480612
02366568
13000101
07234864
26225514
14507005
13041096
25801651
22344438
23952229
25024752
01924788
17679397
20837763
21476934
22348174
15491684
19388071
20455836
09299645
21543097
22113037
09312439
22526544
15307085
19972849
18681743
14505843
20699239
19411766
00378941
21775303
22186190
08948771
14712334
10016058
22388753
12250341
09762876
10771042
22054952
1390650X
21658439
2412642X
16930266
00906778
02592312
19943601
20494327
22206310
07036337
00469939
20363605
09266585
10226508
02529165
10785337
20924984
03547132
22602895
22129774
07342829
19485085
0031031X
01621858
21801398
23081139
25216805
03526712
14293447
01228285
16430506
13018620
01316230
08543844
19380232
19957262
04412508
0003388X
02181967
21595291
19759339
12321087
10566716
20636415
10712690
24688932
08915245
21979707
18411517
14100843
24760757
10829784
14765918
00440604
22540644
2194573X
00046299
07038992
07367236
12263699
0081685X
26167174
20897537
07335113
14815869
15321797
23138556
12293342
01650505
1067828X
00057894
24945757
2227457X
10762825
18210171
20956983
20726716
17483107
13009052
00385875
02494744
00142239
24422606
08845913
22181067
22117245
20934009
23046201
21687595
00925640
09332480
25748904
03195724
24497452
26866986
10665684
25283359
16772334
07692617
12127973
23042761
15778517
1980086X
1752928X
00816485
04549910
00393134
01577271
25033557
13191047
2688268X
18410464
09164812
10293132
03800598
19369816
20459769
09768769
25183389
23760818
00390526
02761599
00185043
25597604
02780895
20926332
15226662
20868952
10530797
2529198X
12261750
14137372
18129269
23277920
12345678
00318663
15437671
2410910X
1065075X
19070357
25761196
24683485
07193262
21694842
23636912
17533562
0309524X
23567651
23098708
21905487
21682356
03010503
25411667
13899597
10163573
01221701
0718025X
08198691
17597374
01026720
09753060
01761617
18688071
15362302
25081640
01156195
00380164
18902936
23546093
12267562
0144333X
1069031X
13321056
17276179
21501351
12260274
08859221
03731332
25507583
25755838
00102202
22111662
14110105
08607435
16934024
03543870
17511577
10384162
16762800
2544428X
2088768X
26141299
01627546
16101928
2230973X
26156946
01463373
01240099
22495126
03248275
26660172
02577941
23390719
13000365
10467408
13906267
25088831
01634445
13432583
87566990
20785909
09243453
00098140
02627280
10781439
07315996
1551823X
00359009
20443994
10589813
00215120
25809334
03620972
22259074
16155289
19753225
20518803
17562104
24775126
2302836X
22277943
10499652
00288144
22791469
03213005
17286220
11328231
10169008
09733930
24078115
02693445
09500839
22133461
26896117
18189431
21528810
22150366
10668926
08872171
22978240
21460809
01635794
20089783
24067792
09540253
22559086
09521895
02191997
09075682
21478325
2299260X
13700480
14439506
10987339
23356804
20960956
16187830
27174611
15555240
17471532
09433058
04416651
13658816
13184458
16915895
10628002
19463138
0920427X
0951192X
25800108
22526323
20905629
20882432
14076160
18177204
12259438
00781304
23270136
17575567
1090185X
21472971
22115552
14784009
21959919
10635734
17430615
02459000
00955183
00310182
25901486
05400074
25221809
07324928
09743839
25260065
09552863
20831617
25001523
2666027X
26286033
02157829
20807279
19301863
01728113
13852140
19070985
14346044
09749306
00222828
15621774
10106030
18952984
20735081
2618074X
03402096
25481827
07627491
26145979
11728299
21640726
18295282
14134705
02614367
10808620
20854048
03341860
26287595
15427587
09714502
20575637
03600300
23291273
22114645
17403499
12266698
21477841
16962818
25431854
26144913
21107017
25803387
18400655
19981635
08698031
18583237
25763024
21567573
2520100X
24248851
24681873
14062925
0048539X
18486231
07339410
24679674
19714017
00846597
15276805
20293208
00319201
22451439
2310290X
23137371
01678140
22146245
23036036
08097291
2196050X
00220744
22338136
12291390
19786948
08997799
18640753
23388021
18741584
02506882
10445110
23643722
19747071
03991989
00398322
18081851
24157902
23534583
14056313
01211129
2090830X
09596836
16964713
00344346
23310189
15983277
0929693X
01607979
22105220
19308345
27215849
03665348
21659923
00437719
18993028
22132902
2703240X
22529721
14786435
1738222X
0439755X
22321926
1978662X
23119772
01213423
1330030X
26020173
00221082
12829129
0956053X
15487091
03055000
02690055
15208834
10954244
23984279
17581206
24607975
01365835
15986403
15598608
00074977
17555914
17533031
25988603
25281119
20408021
18580696
09764585
09874135
25789295
12299952
20389590
04156412
18103111
25384449
03727874
20356005
02796015
1944687X
21665168
14742748
00228567
26458438
15739414
22372202
21472858
23214309
17385172
13472194
00954918
17423953
09597174
22884637
20893272
1304530X
18151051
14419769
22133437
14120925
19381999
09762213
1876827X
03044068
25099426
19994788
20445040
1343943X
05503213
00953628
0718560X
25218808
23796146
17475198
13132989
19986912
13538047
21520828
20912412
03502953
10549811
09412530
13125702
21959897
23538546
20468253
22697195
1578908X
18991998
00119164
1226363X
21596808
00435147
2250107X
10823220
10066837
20488459
22153292
17369290
23226331
15983986
10478310
19075960
26305313
19950640
10962883
07205775
16257480
15176088
09311890
03899098
21489300
26159112
13860291
21483493
0031806X
25810774
03063704
23863919
20377363
01497634
00320862
26152681
12268593
23496711
01965204
23567678
18123910
23493429
25785745
23567449
26666979
23287837
0585430X
03621537
1794192X
09526862
2460187X
2548723X
17380154
22358676
17625688
05123054
0160239X
19169639
00742740
19769180
16874315
10385282
16925238
1918719X
10762175
18380956
23123192
15988457
25981072
00382337
22390391
15555542
23139749
05538467
1810231X
15363759
00207497
1681309X
18720218
21497796
14927713
22496637
24056650
18601480
2527967X
22894489
26146754
13684868
2530898X
17445302
10185054
15414337
17697212
24775460
0232704X
24687847
01017136
10871845
22201319
16570790
23277998
18119727
02603594
18671144
23038756
21637695
25003224
2598506X
01036041
14124807
16933761
23098082
16411307
10709878
26141140
05661854
09184287
19596928
23099585
22888527
00029947
23479655
00071048
0020871X
17578752
0231424X
15608115
18843344
18455662
26900300
14132095
18594433
07317107
12295701
24522929
20882092
00946176
23842008
1858165X
25317644
21573689
19980744
15050602
1695405X
07300301
14531100
10923063
13207881
00216941
21983534
15981053
13058282
24157848
14793261
18493998
08539987
04515994
16879406
10893954
23100583
18534333
26372622
25945394
21892628
1428149X
09593969
23090952
18725163
00158208
07673701
0142727X
26179296
18583687
12299162
21556237
14712458
14103354
02131269
07512708
17358183
09503579
15167704
0870841X
02183390
13080709
20319525
14608952
19927223
23529350
08927545
17561752
21752095
0210945X
21670846
13055208
09726152
26229307
22285741
23124512
03778401
09753087
00424870
24557870
02648377
25232657
24433500
15347516
20783566
07487711
02150824
08527776
27146669
09334807
01000888
20724756
20066996
21863741
13241583
15283542
1412775X
01006991
24715638
10434534
15700755
22525270
13469843
14550725
15394131
13916343
16143485
17302668
19417012
21677964
21677441
00032409
24132675
14116340
19333145
21419272
02280086
10787844
16935764
08949077
2049632X
23269960
10517200
15412555
15680061
22779744
18110045
00048402
17587360
18348777
1825859X
1762827X
0935798X
26751496
01937235
09412948
1479666X
24706981
2410339X
00485950
15987981
16650441
17418496
22553444
00940607
1889898X
02777223
00487600
18807046
08893268
20909063
23203331
07217714
16033663
22523006
19479956
17582555
00147354
19392699
00092614
03906663
21644543
07426046
23476249
20071175
14394235
19528302
20880537
15784576
1738415X
24722200
2717560X
05075475
01622897
09328629
22887202
13614533
21906483
20135246
23557486
21868131
20583273
07339399
07533969
02613069
14467887
00385751
20930585
17343801
09704914
21483728
07356331
26866617
03621340
00195421
09408789
1947489X
20531281
20711190
08541957
00127361
16461029
00302228
20497555
27069400
00249831
14726882
00034541
14302519
10634258
24249653
00345466
20895127
21735093
26861887
26188562
03055698
10245294
18191924
2090097X
1829684X
12826545
00435643
11684917
20873735
26317877
00095907
21559856
23395095
24600113
25142119
19371179
02567040
25280295
10850295
00084077
13876805
24093661
01676997
15350770
1230607X
09724907
20902123
55555152
20881533
19440278
13606719
09307575
18185800
19091621
24600067
08746168
13446223
16342143
02134853
2095882X
13560131
19782462
1479697X
21454515
26012537
16874188
14610183
10069305
19073720
25282506
10305823
1949095X
18742203
22519572
18096875
1735143X
23216344
19370679
02539837
14786478
16784855
2502647X
10894160
00988243
20873336
14413523
26631768
26955040
00351601
14793059
17318157
00194131
0976982X
23220937
00143820
08001669
17531039
18636683
00068144
01657836
10663487
22174958
23003588
1598091X
18479812
0866773X
00268933
12303429
02149141
02085216
15238822
20963564
26205505
19918631
25495291
10438599
16797604
13510347
10431578
12294616
17555191
25426583
25901982
15664910
17566606
00071226
1090820X
07516614
01652370
14704994
11052333
24235903
25288083
16116550
15371735
00794295
07491565
0163755X
01380680
22385177
09518339
00241148
09558217
10598596
18755372
14636646
20629494
02147033
20850840
26859068
20870620
1698451X
14147106
21553297
0893164X
09730168
00968994
19972857
10501738
13438832
13133705
17485037
09862943
10503307
02572117
2721804X
16637976
05419298
00032654
21463158
22028323
02568853
26659441
14507951
23194111
22313494
17503175
22336036
02723433
20426445
0001415X
13364561
01290835
00155691
18632297
18435254
26211610
21043736
15735214
14120909
22310207
0971586X
15179427
2528732X
15597431
09765646
0898140X
19767277
23213124
09523383
25803654
21948976
25286536
00103616
00281344
16935284
03082296
23064900
00078980
22529764
23567597
23104902
00650951
11344539
2355472X
10521453
23476745
19945442
25025880
14739542
15566153
00080845
0742597X
08961018
18744656
13846574
08909369
15371891
11304235
20570384
16140001
24706469
01200976
20908628
25480898
26230674
0720048X
09736883
22774939
21946566
26636468
22127119
16700139
23557206
0015587X
01246127
2663094X
25283561
25986147
10279636
02784343
17383641
26639181
21632588
10187138
26375672
20728352
16808738
14229528
00916471
13300067
2548317X
10841806
1304334X
01640291
20296223
1556858X
03043797
22206469
21596859
17457580
16922522
10530509
19677499
09720707
14681641
0367004x
03154386
20814488
10556400
00900028
18752772
14384221
2152274X
19460538
18951171
21500924
25724614
02161540
26050730
09097252
03871193
1979889X
14101246
11802332
15988651
07481977
18001122
11337613
20072406
09754423
12343684
23642831
13213660
25334387
18702333
17567505
00845647
26592703
00359351
14129655
22775110
25408801
25987585
00397989
21682771
18799337
2460576X
18581463
00243590
18727948
14108755
19075197
21568472
20292341
17368987
23028467
0103460X
21938652
18036546
01065815
01234366
15983757
10583300
23046082
18806937
01597868
12474819
17479894
10527036
00352969
25426117
15908658
1762570X
23735996
01675427
24683574
02523108
02686961
09657576
20950233
08886296
10647562
13477986
03921921
03071375
09516433
23725060
00414301
23214430
13904051
24660981
15178382
15701603
00221902
16874277
00755036
1932149X
24139122
10982140
22128328
24727008
17290376
14696053
22104372
03213056
1756137X
01602446
21628416
17581605
24422622
2500316X
18045804
23118148
12218111
07916833
10219013
12317853
18866190
11952199
25411292
01436503
15989984
22872728
20866887
26163551
10913505
02666138
01672533
03730956
00443409
18237517
19391382
18696899
22759190
26664909
1357034X
20120761
00783579
1110208X
25286269
24243477
2359313X
15269523
01429612
23777338
16768558
03407330
00309915
21938229
19619685
22264388
24659754
01202812
2617703X
21595836
23129360
21767955
23409320
10420967
17434955
23322101
20814461
20750943
14256851
01492993
15297764
21487510
00225282
07420528
20831986
1042752X
1877282X
09536205
25901710
20091656
21949719
0278081X
09154027
25153919
23134747
13447610
